<?xml version="1.0" standalone="no"?>
<!DOCTYPE svg PUBLIC "-//W3C//DTD SVG 1.1//EN" "http://www.w3.org/Graphics/SVG/1.1/DTD/svg11.dtd" >
<svg xmlns="http://www.w3.org/2000/svg">
<metadata>Generated by IcoMoon</metadata>
<defs>
<font id="icomoon" horiz-adv-x="1024">
<font-face units-per-em="1024" ascent="960" descent="-64" />
<missing-glyph horiz-adv-x="1024" />
<glyph unicode="&#x20;" horiz-adv-x="512" d="" />
<glyph unicode="&#xe900;" glyph-name="ic_delete" d="M256 149.333c0-46.933 38.4-85.333 85.333-85.333h341.333c46.933 0 85.333 38.4 85.333 85.333v512h-512v-512zM810.667 789.333h-149.333l-42.667 42.667h-213.333l-42.667-42.667h-149.333v-85.333h597.333v85.333z" />
<glyph unicode="&#xe901;" glyph-name="ic_edit" d="M128 224v-160h160l471.893 471.893-160 160-471.893-471.893zM883.627 659.627c16.64 16.64 16.64 43.52 0 60.16l-99.84 99.84c-16.64 16.64-43.52 16.64-60.16 0l-78.080-78.080 160-160 78.080 78.080z" />
<glyph unicode="&#xe902;" glyph-name="ic_upload_error" d="M808.178 517.499c-27.401 139.022-149.499 243.39-296.178 243.39-116.456 0-217.6-66.086-267.97-162.797-121.292-12.895-215.585-115.65-215.585-240.166 0-133.381 108.397-241.778 241.778-241.778h523.852c111.218 0 201.481 90.264 201.481 201.481 0 106.382-82.607 192.616-187.378 199.87zM560.356 209.636h-96.711v96.711h96.711v-96.711zM560.356 345.031h-96.711v251.449h96.711v-251.449z" />
<glyph unicode="&#xe903;" glyph-name="ic_upload_hover" d="M808.178 517.499c-27.401 139.022-149.499 243.39-296.178 243.39-116.456 0-217.6-66.086-267.97-162.797-121.292-12.895-215.585-115.65-215.585-240.166 0-133.381 108.397-241.778 241.778-241.778h523.852c111.218 0 201.481 90.264 201.481 201.481 0 106.382-82.607 192.616-187.378 199.87zM592.593 398.222v-161.185h-161.185v161.185h-120.889l201.481 201.481 201.481-201.481h-120.889z" />
<glyph unicode="&#xe904;" glyph-name="ic_upload" d="M808.178 517.499c-27.401 139.022-149.499 243.39-296.178 243.39-116.456 0-217.6-66.086-267.97-162.797-121.292-12.895-215.585-115.65-215.585-240.166 0-133.381 108.397-241.778 241.778-241.778h523.852c111.218 0 201.481 90.264 201.481 201.481 0 106.382-82.607 192.616-187.378 199.87zM592.593 398.222v-161.185h-161.185v161.185h-120.889l201.481 201.481 201.481-201.481h-120.889z" />
<glyph unicode="&#xe905;" glyph-name="ic_move" d="M56.889 704h910.222c15.709 0 28.444-12.735 28.444-28.444s-12.735-28.444-28.444-28.444h-910.222c-15.709 0-28.444 12.735-28.444 28.444s12.735 28.444 28.444 28.444zM56.889 248.889h910.222c15.709 0 28.444-12.735 28.444-28.444s-12.735-28.444-28.444-28.444h-910.222c-15.709 0-28.444 12.735-28.444 28.444s12.735 28.444 28.444 28.444zM56.889 476.444h910.222c15.709 0 28.444-12.735 28.444-28.444s-12.735-28.444-28.444-28.444h-910.222c-15.709 0-28.444 12.735-28.444 28.444s12.735 28.444 28.444 28.444z" />
<glyph unicode="&#xe906;" glyph-name="ic_add" d="M540.444 903.111v-910.222c0-15.709-12.735-28.444-28.444-28.444s-28.444 12.735-28.444 28.444v910.222c0 15.709 12.735 28.444 28.444 28.444s28.444-12.735 28.444-28.444zM56.889 476.444h910.222c15.709 0 28.444-12.735 28.444-28.444s-12.735-28.444-28.444-28.444h-910.222c-15.709 0-28.444 12.735-28.444 28.444s12.735 28.444 28.444 28.444z" />
<glyph unicode="&#xe907;" glyph-name="ic_close" d="M551.822 448l301.511 301.511c11.378 11.378 11.378 28.444 0 39.822s-28.444 11.378-39.822 0l-301.511-301.511-301.511 301.511c-11.378 11.378-28.444 11.378-39.822 0s-11.378-28.444 0-39.822l301.511-301.511-301.511-301.511c-11.378-11.378-11.378-28.444 0-39.822s28.444-11.378 39.822 0l301.511 301.511 301.511-301.511c11.378-11.378 28.444-11.378 39.822 0s11.378 28.444 0 39.822l-301.511 301.511z" />
<glyph unicode="&#xe908;" glyph-name="ic_filter" d="M455.111 277.333c125.675 0 227.556 101.88 227.556 227.556s-101.88 227.556-227.556 227.556c-125.675 0-227.556-101.88-227.556-227.556s101.88-227.556 227.556-227.556zM455.111 220.444c-157.094 0-284.444 127.35-284.444 284.444s127.35 284.444 284.444 284.444c157.094 0 284.444-127.35 284.444-284.444s-127.35-284.444-284.444-284.444zM621.345 298.428c-11.108 11.108-11.108 29.118 0 40.227s29.118 11.108 40.227 0l216.615-216.615c11.108-11.108 11.108-29.118 0-40.227s-29.118-11.108-40.227 0l-216.615 216.615z" />
<glyph unicode="&#xe909;" glyph-name="ic_closeeyes" d="M237.056 657.942l89.288-89.288c-16.246-29.912-25.474-64.19-25.474-100.623 0-116.604 94.526-211.13 211.13-211.13 36.433 0 70.71 9.228 100.623 25.474l47.725-47.725c-46.746-11.676-96.597-18.613-148.348-18.613-267.060 0-483.556 177.077-483.556 251.994 0 46.265 82.563 131.489 208.612 189.911zM320.431 690.148c58.742 18.377 123.514 29.877 191.569 29.877 267.060 0 483.556-184.752 483.556-251.994 0-45.704-100.016-145.695-247.946-205.061l-71.823 71.823c29.598 36.34 47.343 82.717 47.343 133.239 0 116.604-94.526 211.13-211.13 211.13-50.522 0-96.899-17.745-133.239-47.343l-58.33 58.33zM400.726 494.272l151.136-151.136c-10.515-2.937-21.6-4.507-33.052-4.507-67.705 0-122.592 54.886-122.592 122.592 0 11.452 1.57 22.537 4.507 33.052zM448.748 561.831c19.859 13.855 44.012 21.981 70.063 21.981 67.705 0 122.592-54.886 122.592-122.592 0-26.051-8.126-50.204-21.981-70.063l-170.674 170.674zM194.721 725.183l32.885 32.885 558.639-558.639-32.885-32.885-558.639 558.639z" />
<glyph unicode="&#xe90a;" glyph-name="ic_openeyes" d="M512 200.013c-267.060 0-483.556 177.077-483.556 251.994s216.495 251.994 483.556 251.994c267.060 0 483.556-184.752 483.556-251.994s-216.495-251.994-483.556-251.994zM512 240.876c116.604 0 211.13 94.526 211.13 211.13s-94.526 211.13-211.13 211.13c-116.604 0-211.13-94.526-211.13-211.13s94.526-211.13 211.13-211.13zM518.908 322.444c-67.719 0-122.616 54.897-122.616 122.616s54.897 122.616 122.616 122.616c67.719 0 122.616-54.897 122.616-122.616s-54.897-122.616-122.616-122.616z" />
<glyph unicode="&#xe90b;" glyph-name="ic_resetpw" d="M889.151 121.644c0-33.317-27.127-60.444-60.444-60.444h-445.548c-33.317 0-60.444 27.127-60.444 60.444v146.469c0 33.365 27.127 60.444 60.444 60.444h445.548c33.317 0 60.444-27.079 60.444-60.444v-146.469zM153.615 112.117c-13.346 0-24.178 10.832-24.178 24.178v383.266c0 13.346 10.832 24.178 24.178 24.178h362.377c13.346 0 24.178-10.832 24.178-24.178v-118.471h-157.010c-73.307 0-132.978-59.622-132.978-132.978v-146.469c0-3.24 0.725-6.335 0.967-9.526h-97.533zM204.291 673.912c0 75.386 58.559 136.75 130.512 136.75s130.463-61.363 130.463-136.75v-57.64h-260.975v57.64zM828.706 401.090h-216.004v118.471c0 45.889-32.011 84.090-74.903 94.003v60.348c0 115.425-91.054 209.283-202.997 209.283s-203.045-93.858-203.045-209.283v-60.348c-42.843-9.913-74.854-48.114-74.854-94.003v-383.266c0-53.433 43.278-96.711 96.711-96.711h125.724c24.42-30.754 61.653-50.918 103.819-50.918h445.548c73.307 0 132.978 59.622 132.978 132.978v146.469c0 73.355-59.671 132.978-132.978 132.978zM461.199 246.502c-28.481 0-51.547-23.114-51.547-51.595s23.066-51.595 51.547-51.595c28.481 0 51.595 23.114 51.595 51.595s-23.114 51.595-51.595 51.595zM619.158 246.502c-28.481 0-51.547-23.114-51.547-51.595s23.066-51.595 51.547-51.595c28.481 0 51.595 23.114 51.595 51.595s-23.114 51.595-51.595 51.595zM777.14 246.502c-28.481 0-51.595-23.114-51.595-51.595s23.114-51.595 51.595-51.595c28.481 0 51.547 23.114 51.547 51.595s-23.066 51.595-51.547 51.595z" />
<glyph unicode="&#xe90c;" glyph-name="ic_date" d="M886.066 561.506v143.086c0 38.15-30.926 69.076-69.076 69.076h-65.298v-82.233c0-19.075-15.463-34.538-34.538-34.538s-34.538 15.463-34.538 34.538v82.233h-310.975v-82.233c0-19.075-15.463-34.538-34.538-34.538s-34.538 15.463-34.538 34.538v82.233h-107.525c-38.15 0-69.076-30.926-69.076-69.076v-143.086h760.101zM886.066 492.431h-760.101v-389.834c0-38.15 30.926-69.076 69.076-69.076h621.949c38.15 0 69.076 30.926 69.076 69.076v389.834zM751.692 842.744h65.298c76.299 0 138.152-61.853 138.152-138.152v-601.996c0-76.299-61.853-138.152-138.152-138.152h-621.949c-76.299 0-138.152 61.853-138.152 138.152v601.996c0 76.299 61.853 138.152 138.152 138.152h107.525v54.274c0 19.075 15.463 34.538 34.538 34.538s34.538-15.463 34.538-34.538v-54.274h310.975v54.274c0 19.075 15.463 34.538 34.538 34.538s34.538-15.463 34.538-34.538v-54.274z" />
<glyph unicode="&#xe90d;" glyph-name="ic_log" d="M179.146 931.556h653.518c67.521 0 122.257-54.124 122.257-120.889v-725.333c0-66.765-54.736-120.889-122.257-120.889h-653.518c-67.521 0-122.257 54.124-122.257 120.889v725.333c0 66.765 54.736 120.889 122.257 120.889zM426.343 592.346h336.623c28.053 0 50.794 22.741 50.794 50.794s-22.741 50.794-50.794 50.794h-336.623c-28.053 0-50.794-22.741-50.794-50.794s22.741-50.794 50.794-50.794zM426.343 384.554h336.623c28.053 0 50.794 22.741 50.794 50.794s-22.741 50.794-50.794 50.794h-336.623c-28.053 0-50.794-22.741-50.794-50.794s22.741-50.794 50.794-50.794zM426.343 176.762h336.623c28.053 0 50.794 22.741 50.794 50.794s-22.741 50.794-50.794 50.794h-336.623c-28.053 0-50.794-22.741-50.794-50.794s22.741-50.794 50.794-50.794zM262.188 705.478c-34.428 0-62.338-27.91-62.338-62.338s27.91-62.338 62.338-62.338c34.428 0 62.338 27.91 62.338 62.338s-27.91 62.338-62.338 62.338zM262.188 497.685c-34.428 0-62.338-27.91-62.338-62.338s27.91-62.338 62.338-62.338c34.428 0 62.338 27.91 62.338 62.338s-27.91 62.338-62.338 62.338zM262.188 289.893c-34.428 0-62.338-27.91-62.338-62.338s27.91-62.338 62.338-62.338c34.428 0 62.338 27.91 62.338 62.338s-27.91 62.338-62.338 62.338z" />
</font></defs></svg>